{
  "exhibition_example": {
    "title": "Some Exhibition",
    "poster": "/poster.jpg",
    "link": "https://"
  },
  "wornby": [
    {
      "stub": "/wornby/babyblue",
      "model": "Agnes Montecinos Muñoz",
      "store": "DRESSX",
      "link": "https://dressx.com/products/puffer-suit-with-chain-deco?_pos=6&_sid=998d5f12c&_ss=r",
      "title": "Puffer suit with chain deco ",
      "before": "",
      "after": ""
    },
    {
      "stub": "/wornby/coat",
      "model": "Tatyana Kodzayeva",
      "store": "DRESSX",
      "link": "https://dressx.com/products/amber-buttoned-asymmetric-orange-suit",
      "title": "Amber buttoned asymmetric orange suit",
      "before": "",
      "after": ""
    },
    {
      "stub": "/wornby/mermaidmiranda",
      "model": "Miranda Marquez",
      "store": "XR COUTURE",
      "link": "https://xrcouture.com/collections/featured/products/mythical-mermaid-gown-yifan-pu",
      "title": "Mythical Mermaid Gown",
      "before": "",
      "after": ""
    },
    {
      "stub": "/wornby/printturtleneck",
      "model": "Hannah.and.Anna",
      "store": "DRESSX",
      "link": "https://dressx.com/products/print-turtle-neck",
      "title": "Print turtle neck",
      "before": "",
      "after": ""
    }
  ],
  "show_current_exhibition": false,
  "exhibition": {
    "title": "Test",
    "poster": "/wornby/mermaidmiranda_before.jpg",
    "link": "https://163.com"
  },
  "blurb": "virtual fashion freelancer since 2019"
}
